%!PS-Adobe-3.0 EPSF-3.0
%%Title: ./signal-plan.eps
%%Creator: matplotlib version 3.1.3, http://matplotlib.org/
%%CreationDate: Tue Jul  7 14:05:08 2020
%%Orientation: portrait
%%BoundingBox: -594.0 36.0 1206.0 756.0
%%EndComments
%%BeginProlog
/mpldict 8 dict def
mpldict begin
/m { moveto } bind def
/l { lineto } bind def
/r { rlineto } bind def
/c { curveto } bind def
/cl { closepath } bind def
/box {
m
1 index 0 r
0 exch r
neg 0 r
cl
} bind def
/clipbox {
box
clip
newpath
} bind def
%!PS-Adobe-3.0 Resource-Font
%%Title: DejaVu Sans
%%Copyright: Copyright (c) 2003 by Bitstream, Inc. All Rights Reserved. Copyright (c) 2006 by Tavmjong Bah. All Rights Reserved. DejaVu changes are in public domain 
%%Creator: Converted from TrueType to type 3 by PPR
25 dict begin
/_d{bind def}bind def
/_m{moveto}_d
/_l{lineto}_d
/_cl{closepath eofill}_d
/_c{curveto}_d
/_sc{7 -1 roll{setcachedevice}{pop pop pop pop pop pop}ifelse}_d
/_e{exec}_d
/FontName /DejaVuSans def
/PaintType 0 def
/FontMatrix[.001 0 0 .001 0 0]def
/FontBBox[-1021 -463 1793 1232]def
/FontType 3 def
/Encoding [ /space /zero /one /two /three /four /five /six /seven /eight /nine /K /S /a /c /d /e /g /i /l /n /o /s /arrowleft /arrowup /arrowright /arrowdown /uni21B0 /uni21B1 /uni21B2 /uni21B3 /uni2B0E /uni2B0F /uni2B10 /uni2B11 ] def
/FontInfo 10 dict dup begin
/FamilyName (DejaVu Sans) def
/FullName (DejaVu Sans) def
/Notice (Copyright (c) 2003 by Bitstream, Inc. All Rights Reserved. Copyright (c) 2006 by Tavmjong Bah. All Rights Reserved. DejaVu changes are in public domain ) def
/Weight (Book) def
/Version (Version 2.35) def
/ItalicAngle 0.0 def
/isFixedPitch false def
/UnderlinePosition -130 def
/UnderlineThickness 90 def
end readonly def
/CharStrings 36 dict dup begin
/.notdef 0 def
/space{318 0 0 0 0 0 _sc
}_d
/zero{636 0 66 -13 570 742 _sc
318 664 _m
267 664 229 639 203 589 _c
177 539 165 464 165 364 _c
165 264 177 189 203 139 _c
229 89 267 64 318 64 _c
369 64 407 89 433 139 _c
458 189 471 264 471 364 _c
471 464 458 539 433 589 _c
407 639 369 664 318 664 _c
318 742 _m
399 742 461 709 505 645 _c
548 580 570 486 570 364 _c
570 241 548 147 505 83 _c
461 19 399 -13 318 -13 _c
236 -13 173 19 130 83 _c
87 147 66 241 66 364 _c
66 486 87 580 130 645 _c
173 709 236 742 318 742 _c
_cl}_d
/one{636 0 110 0 544 729 _sc
124 83 _m
285 83 _l
285 639 _l
110 604 _l
110 694 _l
284 729 _l
383 729 _l
383 83 _l
544 83 _l
544 0 _l
124 0 _l
124 83 _l
_cl}_d
/two{{636 0 73 0 536 742 _sc
192 83 _m
536 83 _l
536 0 _l
73 0 _l
73 83 _l
110 121 161 173 226 239 _c
290 304 331 346 348 365 _c
380 400 402 430 414 455 _c
426 479 433 504 433 528 _c
433 566 419 598 392 622 _c
365 646 330 659 286 659 _c
255 659 222 653 188 643 _c
154 632 117 616 78 594 _c
78 694 _l
118 710 155 722 189 730 _c
223 738 255 742 284 742 _c
}_e{359 742 419 723 464 685 _c
509 647 532 597 532 534 _c
532 504 526 475 515 449 _c
504 422 484 390 454 354 _c
446 344 420 317 376 272 _c
332 227 271 164 192 83 _c
_cl}_e}_d
/three{{636 0 76 -13 556 742 _sc
406 393 _m
453 383 490 362 516 330 _c
542 298 556 258 556 212 _c
556 140 531 84 482 45 _c
432 6 362 -13 271 -13 _c
240 -13 208 -10 176 -4 _c
144 1 110 10 76 22 _c
76 117 _l
103 101 133 89 166 81 _c
198 73 232 69 268 69 _c
330 69 377 81 409 105 _c
441 129 458 165 458 212 _c
458 254 443 288 413 312 _c
383 336 341 349 287 349 _c
}_e{202 349 _l
202 430 _l
291 430 _l
339 430 376 439 402 459 _c
428 478 441 506 441 543 _c
441 580 427 609 401 629 _c
374 649 336 659 287 659 _c
260 659 231 656 200 650 _c
169 644 135 635 98 623 _c
98 711 _l
135 721 170 729 203 734 _c
235 739 266 742 296 742 _c
370 742 429 725 473 691 _c
517 657 539 611 539 553 _c
539 513 527 479 504 451 _c
481 423 448 403 406 393 _c
_cl}_e}_d
/four{636 0 49 0 580 729 _sc
378 643 _m
129 254 _l
378 254 _l
378 643 _l
352 729 _m
476 729 _l
476 254 _l
580 254 _l
580 172 _l
476 172 _l
476 0 _l
378 0 _l
378 172 _l
49 172 _l
49 267 _l
352 729 _l
_cl}_d
/five{{636 0 77 -13 549 729 _sc
108 729 _m
495 729 _l
495 646 _l
198 646 _l
198 467 _l
212 472 227 476 241 478 _c
255 480 270 482 284 482 _c
365 482 429 459 477 415 _c
525 370 549 310 549 234 _c
549 155 524 94 475 51 _c
426 8 357 -13 269 -13 _c
238 -13 207 -10 175 -6 _c
143 -1 111 6 77 17 _c
77 116 _l
106 100 136 88 168 80 _c
199 72 232 69 267 69 _c
}_e{323 69 368 83 401 113 _c
433 143 450 183 450 234 _c
450 284 433 324 401 354 _c
368 384 323 399 267 399 _c
241 399 214 396 188 390 _c
162 384 135 375 108 363 _c
108 729 _l
_cl}_e}_d
/six{{636 0 70 -13 573 742 _sc
330 404 _m
286 404 251 388 225 358 _c
199 328 186 286 186 234 _c
186 181 199 139 225 109 _c
251 79 286 64 330 64 _c
374 64 409 79 435 109 _c
461 139 474 181 474 234 _c
474 286 461 328 435 358 _c
409 388 374 404 330 404 _c
526 713 _m
526 623 _l
501 635 476 644 451 650 _c
425 656 400 659 376 659 _c
310 659 260 637 226 593 _c
}_e{192 549 172 482 168 394 _c
187 422 211 444 240 459 _c
269 474 301 482 336 482 _c
409 482 467 459 509 415 _c
551 371 573 310 573 234 _c
573 159 550 99 506 54 _c
462 9 403 -13 330 -13 _c
246 -13 181 19 137 83 _c
92 147 70 241 70 364 _c
70 479 97 571 152 639 _c
206 707 280 742 372 742 _c
396 742 421 739 447 735 _c
472 730 498 723 526 713 _c
_cl}_e}_d
/seven{636 0 82 0 551 729 _sc
82 729 _m
551 729 _l
551 687 _l
286 0 _l
183 0 _l
432 646 _l
82 646 _l
82 729 _l
_cl}_d
/eight{{636 0 68 -13 568 742 _sc
318 346 _m
271 346 234 333 207 308 _c
180 283 167 249 167 205 _c
167 161 180 126 207 101 _c
234 76 271 64 318 64 _c
364 64 401 76 428 102 _c
455 127 469 161 469 205 _c
469 249 455 283 429 308 _c
402 333 365 346 318 346 _c
219 388 _m
177 398 144 418 120 447 _c
96 476 85 511 85 553 _c
85 611 105 657 147 691 _c
188 725 245 742 318 742 _c
}_e{390 742 447 725 489 691 _c
530 657 551 611 551 553 _c
551 511 539 476 515 447 _c
491 418 459 398 417 388 _c
464 377 501 355 528 323 _c
554 291 568 251 568 205 _c
568 134 546 80 503 43 _c
459 5 398 -13 318 -13 _c
237 -13 175 5 132 43 _c
89 80 68 134 68 205 _c
68 251 81 291 108 323 _c
134 355 171 377 219 388 _c
183 544 _m
183 506 194 476 218 455 _c
}_e{242 434 275 424 318 424 _c
360 424 393 434 417 455 _c
441 476 453 506 453 544 _c
453 582 441 611 417 632 _c
393 653 360 664 318 664 _c
275 664 242 653 218 632 _c
194 611 183 582 183 544 _c
_cl}_e}_d
/nine{{636 0 63 -13 566 742 _sc
110 15 _m
110 105 _l
134 93 159 84 185 78 _c
210 72 235 69 260 69 _c
324 69 374 90 408 134 _c
442 178 462 244 468 334 _c
448 306 424 284 396 269 _c
367 254 335 247 300 247 _c
226 247 168 269 126 313 _c
84 357 63 417 63 494 _c
63 568 85 628 129 674 _c
173 719 232 742 306 742 _c
390 742 455 709 499 645 _c
543 580 566 486 566 364 _c
}_e{566 248 538 157 484 89 _c
429 21 356 -13 264 -13 _c
239 -13 214 -10 189 -6 _c
163 -2 137 5 110 15 _c
306 324 _m
350 324 385 339 411 369 _c
437 399 450 441 450 494 _c
450 546 437 588 411 618 _c
385 648 350 664 306 664 _c
262 664 227 648 201 618 _c
175 588 162 546 162 494 _c
162 441 175 399 201 369 _c
227 339 262 324 306 324 _c
_cl}_e}_d
/K{656 0 98 0 677 729 _sc
98 729 _m
197 729 _l
197 421 _l
524 729 _l
651 729 _l
289 389 _l
677 0 _l
547 0 _l
197 351 _l
197 0 _l
98 0 _l
98 729 _l
_cl}_d
/S{{635 0 66 -13 579 742 _sc
535 705 _m
535 609 _l
497 627 462 640 429 649 _c
395 657 363 662 333 662 _c
279 662 237 651 208 631 _c
179 610 165 580 165 542 _c
165 510 174 485 194 469 _c
213 452 250 439 304 429 _c
364 417 _l
437 403 491 378 526 343 _c
561 307 579 260 579 201 _c
579 130 555 77 508 41 _c
460 5 391 -13 300 -13 _c
265 -13 228 -9 189 -2 _c
}_e{150 5 110 16 69 32 _c
69 134 _l
109 111 148 94 186 83 _c
224 71 262 66 300 66 _c
356 66 399 77 430 99 _c
460 121 476 152 476 194 _c
476 230 465 258 443 278 _c
421 298 385 313 335 323 _c
275 335 _l
201 349 148 372 115 404 _c
82 435 66 478 66 534 _c
66 598 88 649 134 686 _c
179 723 242 742 322 742 _c
356 742 390 739 426 733 _c
461 727 497 717 535 705 _c
}_e{_cl}_e}_d
/a{{613 0 60 -13 522 560 _sc
343 275 _m
270 275 220 266 192 250 _c
164 233 150 205 150 165 _c
150 133 160 107 181 89 _c
202 70 231 61 267 61 _c
317 61 357 78 387 114 _c
417 149 432 196 432 255 _c
432 275 _l
343 275 _l
522 312 _m
522 0 _l
432 0 _l
432 83 _l
411 49 385 25 355 10 _c
325 -5 287 -13 243 -13 _c
187 -13 142 2 109 33 _c
76 64 60 106 60 159 _c
}_e{60 220 80 266 122 298 _c
163 329 224 345 306 345 _c
432 345 _l
432 354 _l
432 395 418 427 391 450 _c
364 472 326 484 277 484 _c
245 484 215 480 185 472 _c
155 464 127 453 100 439 _c
100 522 _l
132 534 164 544 195 550 _c
226 556 256 560 286 560 _c
365 560 424 539 463 498 _c
502 457 522 395 522 312 _c
_cl}_e}_d
/c{{550 0 55 -13 488 560 _sc
488 526 _m
488 442 _l
462 456 437 466 411 473 _c
385 480 360 484 334 484 _c
276 484 230 465 198 428 _c
166 391 150 339 150 273 _c
150 206 166 154 198 117 _c
230 80 276 62 334 62 _c
360 62 385 65 411 72 _c
437 79 462 90 488 104 _c
488 21 _l
462 9 436 0 410 -5 _c
383 -10 354 -13 324 -13 _c
242 -13 176 12 128 64 _c
}_e{79 115 55 185 55 273 _c
55 362 79 432 128 483 _c
177 534 244 560 330 560 _c
358 560 385 557 411 551 _c
437 545 463 537 488 526 _c
_cl}_e}_d
/d{{635 0 55 -13 544 760 _sc
454 464 _m
454 760 _l
544 760 _l
544 0 _l
454 0 _l
454 82 _l
435 49 411 25 382 10 _c
353 -5 319 -13 279 -13 _c
213 -13 159 13 117 65 _c
75 117 55 187 55 273 _c
55 359 75 428 117 481 _c
159 533 213 560 279 560 _c
319 560 353 552 382 536 _c
411 520 435 496 454 464 _c
148 273 _m
148 207 161 155 188 117 _c
215 79 253 61 301 61 _c
}_e{348 61 385 79 413 117 _c
440 155 454 207 454 273 _c
454 339 440 390 413 428 _c
385 466 348 485 301 485 _c
253 485 215 466 188 428 _c
161 390 148 339 148 273 _c
_cl}_e}_d
/e{{615 0 55 -13 562 560 _sc
562 296 _m
562 252 _l
149 252 _l
153 190 171 142 205 110 _c
238 78 284 62 344 62 _c
378 62 412 66 444 74 _c
476 82 509 95 541 113 _c
541 28 _l
509 14 476 3 442 -3 _c
408 -9 373 -13 339 -13 _c
251 -13 182 12 131 62 _c
80 112 55 181 55 268 _c
55 357 79 428 127 481 _c
175 533 241 560 323 560 _c
397 560 455 536 498 489 _c
}_e{540 441 562 377 562 296 _c
472 322 _m
471 371 457 410 431 440 _c
404 469 368 484 324 484 _c
274 484 234 469 204 441 _c
174 413 156 373 152 322 _c
472 322 _l
_cl}_e}_d
/g{{635 0 55 -207 544 560 _sc
454 280 _m
454 344 440 395 414 431 _c
387 467 349 485 301 485 _c
253 485 215 467 188 431 _c
161 395 148 344 148 280 _c
148 215 161 165 188 129 _c
215 93 253 75 301 75 _c
349 75 387 93 414 129 _c
440 165 454 215 454 280 _c
544 68 _m
544 -24 523 -93 482 -139 _c
440 -184 377 -207 292 -207 _c
260 -207 231 -204 203 -200 _c
175 -195 147 -188 121 -178 _c
}_e{121 -91 _l
147 -105 173 -115 199 -122 _c
225 -129 251 -133 278 -133 _c
336 -133 380 -117 410 -87 _c
439 -56 454 -10 454 52 _c
454 96 _l
435 64 411 40 382 24 _c
353 8 319 0 279 0 _c
211 0 157 25 116 76 _c
75 127 55 195 55 280 _c
55 364 75 432 116 483 _c
157 534 211 560 279 560 _c
319 560 353 552 382 536 _c
411 520 435 496 454 464 _c
454 547 _l
544 547 _l
}_e{544 68 _l
_cl}_e}_d
/i{278 0 94 0 184 760 _sc
94 547 _m
184 547 _l
184 0 _l
94 0 _l
94 547 _l
94 760 _m
184 760 _l
184 646 _l
94 646 _l
94 760 _l
_cl}_d
/l{278 0 94 0 184 760 _sc
94 760 _m
184 760 _l
184 0 _l
94 0 _l
94 760 _l
_cl}_d
/n{634 0 91 0 549 560 _sc
549 330 _m
549 0 _l
459 0 _l
459 327 _l
459 379 448 417 428 443 _c
408 469 378 482 338 482 _c
289 482 251 466 223 435 _c
195 404 181 362 181 309 _c
181 0 _l
91 0 _l
91 547 _l
181 547 _l
181 462 _l
202 494 227 519 257 535 _c
286 551 320 560 358 560 _c
420 560 468 540 500 501 _c
532 462 549 405 549 330 _c
_cl}_d
/o{612 0 55 -13 557 560 _sc
306 484 _m
258 484 220 465 192 427 _c
164 389 150 338 150 273 _c
150 207 163 156 191 118 _c
219 80 257 62 306 62 _c
354 62 392 80 420 118 _c
448 156 462 207 462 273 _c
462 337 448 389 420 427 _c
392 465 354 484 306 484 _c
306 560 _m
384 560 445 534 490 484 _c
534 433 557 363 557 273 _c
557 183 534 113 490 63 _c
445 12 384 -13 306 -13 _c
227 -13 165 12 121 63 _c
77 113 55 183 55 273 _c
55 363 77 433 121 484 _c
165 534 227 560 306 560 _c
_cl}_d
/s{{521 0 54 -13 472 560 _sc
443 531 _m
443 446 _l
417 458 391 468 364 475 _c
336 481 308 485 279 485 _c
234 485 200 478 178 464 _c
156 450 145 430 145 403 _c
145 382 153 366 169 354 _c
185 342 217 330 265 320 _c
296 313 _l
360 299 405 279 432 255 _c
458 230 472 195 472 151 _c
472 100 452 60 412 31 _c
372 1 316 -13 246 -13 _c
216 -13 186 -10 154 -5 _c
}_e{122 0 89 8 54 20 _c
54 113 _l
87 95 120 82 152 74 _c
184 65 216 61 248 61 _c
290 61 323 68 346 82 _c
368 96 380 117 380 144 _c
380 168 371 187 355 200 _c
339 213 303 226 247 238 _c
216 245 _l
160 257 119 275 95 299 _c
70 323 58 356 58 399 _c
58 450 76 490 112 518 _c
148 546 200 560 268 560 _c
301 560 332 557 362 552 _c
391 547 418 540 443 531 _c
}_e{_cl}_e}_d
/arrowleft{838 0 49 100 781 527 _sc
49 292 _m
49 335 _l
241 527 _l
299 469 _l
186 355 _l
781 355 _l
781 272 _l
186 272 _l
299 158 _l
241 100 _l
49 292 _l
_cl}_d
/arrowup{838 0 205 0 632 732 _sc
397 732 _m
441 732 _l
632 540 _l
574 481 _l
460 596 _l
460 0 _l
377 0 _l
377 596 _l
263 481 _l
205 540 _l
397 732 _l
_cl}_d
/arrowright{838 0 57 100 789 527 _sc
789 335 _m
789 292 _l
597 100 _l
539 158 _l
652 272 _l
57 272 _l
57 355 _l
652 355 _l
539 469 _l
597 527 _l
789 335 _l
_cl}_d
/arrowdown{838 0 205 -2 632 729 _sc
441 -2 _m
397 -2 _l
205 189 _l
263 248 _l
377 133 _l
377 729 _l
460 729 _l
460 133 _l
574 248 _l
632 189 _l
441 -2 _l
_cl}_d
/uni21B0{838 0 169 0 629 743 _sc
629 571 _m
629 0 _l
546 0 _l
546 488 _l
306 488 _l
419 374 _l
361 315 _l
169 507 _l
169 551 _l
361 743 _l
419 685 _l
306 571 _l
629 571 _l
_cl}_d
/uni21B1{838 0 209 0 669 743 _sc
209 571 _m
533 571 _l
419 685 _l
478 743 _l
669 551 _l
669 507 _l
478 315 _l
419 374 _l
533 488 _l
292 488 _l
292 0 _l
209 0 _l
209 571 _l
_cl}_d
/uni21B2{838 0 169 -13 629 729 _sc
629 158 _m
306 158 _l
419 44 _l
361 -13 _l
169 178 _l
169 222 _l
361 414 _l
419 355 _l
306 241 _l
546 241 _l
546 729 _l
629 729 _l
629 158 _l
_cl}_d
/uni21B3{838 0 209 -13 669 729 _sc
209 158 _m
209 729 _l
292 729 _l
292 241 _l
533 241 _l
419 355 _l
478 414 _l
669 222 _l
669 178 _l
478 -13 _l
419 44 _l
533 158 _l
209 158 _l
_cl}_d
/uni2B0E{836 0 57 -2 790 355 _sc
598 -2 _m
554 -2 _l
362 189 _l
421 248 _l
534 133 _l
534 272 _l
57 272 _l
57 355 _l
617 355 _l
617 133 _l
731 248 _l
790 189 _l
598 -2 _l
_cl}_d
/uni2B0F{836 0 57 272 790 630 _sc
598 630 _m
790 438 _l
731 379 _l
617 494 _l
617 272 _l
57 272 _l
57 355 _l
534 355 _l
534 494 _l
421 379 _l
362 438 _l
554 630 _l
598 630 _l
_cl}_d
/uni2B10{836 0 35 -2 768 355 _sc
228 -2 _m
35 189 _l
94 248 _l
208 133 _l
208 355 _l
768 355 _l
768 272 _l
291 272 _l
291 133 _l
404 248 _l
463 189 _l
271 -2 _l
228 -2 _l
_cl}_d
/uni2B11{836 0 35 272 768 630 _sc
228 630 _m
271 630 _l
463 438 _l
404 379 _l
291 494 _l
291 355 _l
768 355 _l
768 272 _l
208 272 _l
208 494 _l
94 379 _l
35 438 _l
228 630 _l
_cl}_d
end readonly def

/BuildGlyph
 {exch begin
 CharStrings exch
 2 copy known not{pop /.notdef}if
 true 3 1 roll get exec
 end}_d

/BuildChar {
 1 index /Encoding get exch get
 1 index /BuildGlyph get exec
}_d

FontName currentdict end definefont pop
end
%%EndProlog
mpldict begin
-594 36 translate
1800 720 0 0 clipbox
gsave
0 0 m
1800 0 l
1800 720 l
0 720 l
cl
1.000 setgray
fill
grestore
gsave
225 79.2 m
1620 79.2 l
1620 633.6 l
225 633.6 l
cl
1.000 setgray
fill
grestore
gsave
1395 554.4 225 79.2 clipbox
225 608.4 m
280.8 608.4 l
280.8 598.890566 l
225 598.890566 l
cl
0.980 0.639 0.027 setrgbcolor
fill
grestore
gsave
1395 554.4 225 79.2 clipbox
225 570.362264 m
280.8 570.362264 l
280.8 560.85283 l
225 560.85283 l
cl
0.980 0.639 0.027 setrgbcolor
fill
grestore
gsave
1395 554.4 225 79.2 clipbox
225 532.324528 m
280.8 532.324528 l
280.8 522.815094 l
225 522.815094 l
cl
0.980 0.639 0.027 setrgbcolor
fill
grestore
gsave
1395 554.4 225 79.2 clipbox
225 491.433962 m
280.8 491.433962 l
280.8 487.630189 l
225 487.630189 l
cl
0.922 0.318 0.376 setrgbcolor
fill
grestore
gsave
1395 554.4 225 79.2 clipbox
225 453.396226 m
280.8 453.396226 l
280.8 449.592453 l
225 449.592453 l
cl
0.922 0.318 0.376 setrgbcolor
fill
grestore
gsave
1395 554.4 225 79.2 clipbox
225 415.358491 m
280.8 415.358491 l
280.8 411.554717 l
225 411.554717 l
cl
0.922 0.318 0.376 setrgbcolor
fill
grestore
gsave
1395 554.4 225 79.2 clipbox
225 377.320755 m
280.8 377.320755 l
280.8 373.516981 l
225 373.516981 l
cl
0.922 0.318 0.376 setrgbcolor
fill
grestore
gsave
1395 554.4 225 79.2 clipbox
225 342.135849 m
280.8 342.135849 l
280.8 332.626415 l
225 332.626415 l
cl
0.980 0.639 0.027 setrgbcolor
fill
grestore
gsave
1395 554.4 225 79.2 clipbox
225 304.098113 m
280.8 304.098113 l
280.8 294.588679 l
225 294.588679 l
cl
0.980 0.639 0.027 setrgbcolor
fill
grestore
gsave
1395 554.4 225 79.2 clipbox
225 266.060377 m
280.8 266.060377 l
280.8 256.550943 l
225 256.550943 l
cl
0.980 0.639 0.027 setrgbcolor
fill
grestore
gsave
1395 554.4 225 79.2 clipbox
225 225.169811 m
280.8 225.169811 l
280.8 221.366038 l
225 221.366038 l
cl
0.922 0.318 0.376 setrgbcolor
fill
grestore
gsave
1395 554.4 225 79.2 clipbox
225 187.132075 m
280.8 187.132075 l
280.8 183.328302 l
225 183.328302 l
cl
0.922 0.318 0.376 setrgbcolor
fill
grestore
gsave
1395 554.4 225 79.2 clipbox
225 149.09434 m
280.8 149.09434 l
280.8 145.290566 l
225 145.290566 l
cl
0.922 0.318 0.376 setrgbcolor
fill
grestore
gsave
1395 554.4 225 79.2 clipbox
225 111.056604 m
280.8 111.056604 l
280.8 107.25283 l
225 107.25283 l
cl
0.922 0.318 0.376 setrgbcolor
fill
grestore
gsave
1395 554.4 225 79.2 clipbox
280.8 608.4 m
838.8 608.4 l
838.8 598.890566 l
280.8 598.890566 l
cl
0.133 0.435 0.329 setrgbcolor
fill
grestore
gsave
1395 554.4 225 79.2 clipbox
280.8 570.362264 m
838.8 570.362264 l
838.8 560.85283 l
280.8 560.85283 l
cl
0.024 0.839 0.627 setrgbcolor
fill
grestore
gsave
1395 554.4 225 79.2 clipbox
280.8 532.324528 m
838.8 532.324528 l
838.8 522.815094 l
280.8 522.815094 l
cl
0.133 0.435 0.329 setrgbcolor
fill
grestore
gsave
1395 554.4 225 79.2 clipbox
280.8 491.433962 m
838.8 491.433962 l
838.8 487.630189 l
280.8 487.630189 l
cl
0.922 0.318 0.376 setrgbcolor
fill
grestore
gsave
1395 554.4 225 79.2 clipbox
280.8 453.396226 m
838.8 453.396226 l
838.8 449.592453 l
280.8 449.592453 l
cl
0.922 0.318 0.376 setrgbcolor
fill
grestore
gsave
1395 554.4 225 79.2 clipbox
280.8 415.358491 m
838.8 415.358491 l
838.8 411.554717 l
280.8 411.554717 l
cl
0.922 0.318 0.376 setrgbcolor
fill
grestore
gsave
1395 554.4 225 79.2 clipbox
280.8 377.320755 m
838.8 377.320755 l
838.8 373.516981 l
280.8 373.516981 l
cl
0.922 0.318 0.376 setrgbcolor
fill
grestore
gsave
1395 554.4 225 79.2 clipbox
280.8 342.135849 m
838.8 342.135849 l
838.8 332.626415 l
280.8 332.626415 l
cl
0.133 0.435 0.329 setrgbcolor
fill
grestore
gsave
1395 554.4 225 79.2 clipbox
280.8 304.098113 m
838.8 304.098113 l
838.8 294.588679 l
280.8 294.588679 l
cl
0.024 0.839 0.627 setrgbcolor
fill
grestore
gsave
1395 554.4 225 79.2 clipbox
280.8 266.060377 m
838.8 266.060377 l
838.8 256.550943 l
280.8 256.550943 l
cl
0.133 0.435 0.329 setrgbcolor
fill
grestore
gsave
1395 554.4 225 79.2 clipbox
280.8 225.169811 m
838.8 225.169811 l
838.8 221.366038 l
280.8 221.366038 l
cl
0.922 0.318 0.376 setrgbcolor
fill
grestore
gsave
1395 554.4 225 79.2 clipbox
280.8 187.132075 m
838.8 187.132075 l
838.8 183.328302 l
280.8 183.328302 l
cl
0.922 0.318 0.376 setrgbcolor
fill
grestore
gsave
1395 554.4 225 79.2 clipbox
280.8 149.09434 m
838.8 149.09434 l
838.8 145.290566 l
280.8 145.290566 l
cl
0.922 0.318 0.376 setrgbcolor
fill
grestore
gsave
1395 554.4 225 79.2 clipbox
280.8 111.056604 m
838.8 111.056604 l
838.8 107.25283 l
280.8 107.25283 l
cl
0.922 0.318 0.376 setrgbcolor
fill
grestore
gsave
1395 554.4 225 79.2 clipbox
838.8 608.4 m
1006.2 608.4 l
1006.2 598.890566 l
838.8 598.890566 l
cl
0.941 0.784 0.031 setrgbcolor
fill
grestore
gsave
1395 554.4 225 79.2 clipbox
838.8 570.362264 m
1006.2 570.362264 l
1006.2 560.85283 l
838.8 560.85283 l
cl
0.941 0.784 0.031 setrgbcolor
fill
grestore
gsave
1395 554.4 225 79.2 clipbox
838.8 532.324528 m
1006.2 532.324528 l
1006.2 522.815094 l
838.8 522.815094 l
cl
0.941 0.784 0.031 setrgbcolor
fill
grestore
gsave
1395 554.4 225 79.2 clipbox
838.8 491.433962 m
1006.2 491.433962 l
1006.2 487.630189 l
838.8 487.630189 l
cl
0.922 0.318 0.376 setrgbcolor
fill
grestore
gsave
1395 554.4 225 79.2 clipbox
838.8 453.396226 m
1006.2 453.396226 l
1006.2 449.592453 l
838.8 449.592453 l
cl
0.922 0.318 0.376 setrgbcolor
fill
grestore
gsave
1395 554.4 225 79.2 clipbox
838.8 415.358491 m
1006.2 415.358491 l
1006.2 411.554717 l
838.8 411.554717 l
cl
0.922 0.318 0.376 setrgbcolor
fill
grestore
gsave
1395 554.4 225 79.2 clipbox
838.8 377.320755 m
1006.2 377.320755 l
1006.2 373.516981 l
838.8 373.516981 l
cl
0.922 0.318 0.376 setrgbcolor
fill
grestore
gsave
1395 554.4 225 79.2 clipbox
838.8 342.135849 m
1006.2 342.135849 l
1006.2 332.626415 l
838.8 332.626415 l
cl
0.941 0.784 0.031 setrgbcolor
fill
grestore
gsave
1395 554.4 225 79.2 clipbox
838.8 304.098113 m
1006.2 304.098113 l
1006.2 294.588679 l
838.8 294.588679 l
cl
0.941 0.784 0.031 setrgbcolor
fill
grestore
gsave
1395 554.4 225 79.2 clipbox
838.8 266.060377 m
1006.2 266.060377 l
1006.2 256.550943 l
838.8 256.550943 l
cl
0.941 0.784 0.031 setrgbcolor
fill
grestore
gsave
1395 554.4 225 79.2 clipbox
838.8 225.169811 m
1006.2 225.169811 l
1006.2 221.366038 l
838.8 221.366038 l
cl
0.922 0.318 0.376 setrgbcolor
fill
grestore
gsave
1395 554.4 225 79.2 clipbox
838.8 187.132075 m
1006.2 187.132075 l
1006.2 183.328302 l
838.8 183.328302 l
cl
0.922 0.318 0.376 setrgbcolor
fill
grestore
gsave
1395 554.4 225 79.2 clipbox
838.8 149.09434 m
1006.2 149.09434 l
1006.2 145.290566 l
838.8 145.290566 l
cl
0.922 0.318 0.376 setrgbcolor
fill
grestore
gsave
1395 554.4 225 79.2 clipbox
838.8 111.056604 m
1006.2 111.056604 l
1006.2 107.25283 l
838.8 107.25283 l
cl
0.922 0.318 0.376 setrgbcolor
fill
grestore
gsave
1395 554.4 225 79.2 clipbox
1006.2 605.54717 m
1173.6 605.54717 l
1173.6 601.743396 l
1006.2 601.743396 l
cl
0.922 0.318 0.376 setrgbcolor
fill
grestore
gsave
1395 554.4 225 79.2 clipbox
1006.2 567.509434 m
1173.6 567.509434 l
1173.6 563.70566 l
1006.2 563.70566 l
cl
0.922 0.318 0.376 setrgbcolor
fill
grestore
gsave
1395 554.4 225 79.2 clipbox
1006.2 529.471698 m
1173.6 529.471698 l
1173.6 525.667925 l
1006.2 525.667925 l
cl
0.922 0.318 0.376 setrgbcolor
fill
grestore
gsave
1395 554.4 225 79.2 clipbox
1006.2 491.433962 m
1173.6 491.433962 l
1173.6 487.630189 l
1006.2 487.630189 l
cl
0.922 0.318 0.376 setrgbcolor
fill
grestore
gsave
1395 554.4 225 79.2 clipbox
1006.2 453.396226 m
1173.6 453.396226 l
1173.6 449.592453 l
1006.2 449.592453 l
cl
0.922 0.318 0.376 setrgbcolor
fill
grestore
gsave
1395 554.4 225 79.2 clipbox
1006.2 415.358491 m
1173.6 415.358491 l
1173.6 411.554717 l
1006.2 411.554717 l
cl
0.922 0.318 0.376 setrgbcolor
fill
grestore
gsave
1395 554.4 225 79.2 clipbox
1006.2 377.320755 m
1173.6 377.320755 l
1173.6 373.516981 l
1006.2 373.516981 l
cl
0.922 0.318 0.376 setrgbcolor
fill
grestore
gsave
1395 554.4 225 79.2 clipbox
1006.2 339.283019 m
1173.6 339.283019 l
1173.6 335.479245 l
1006.2 335.479245 l
cl
0.922 0.318 0.376 setrgbcolor
fill
grestore
gsave
1395 554.4 225 79.2 clipbox
1006.2 301.245283 m
1173.6 301.245283 l
1173.6 297.441509 l
1006.2 297.441509 l
cl
0.922 0.318 0.376 setrgbcolor
fill
grestore
gsave
1395 554.4 225 79.2 clipbox
1006.2 263.207547 m
1173.6 263.207547 l
1173.6 259.403774 l
1006.2 259.403774 l
cl
0.922 0.318 0.376 setrgbcolor
fill
grestore
gsave
1395 554.4 225 79.2 clipbox
1006.2 225.169811 m
1173.6 225.169811 l
1173.6 221.366038 l
1006.2 221.366038 l
cl
0.922 0.318 0.376 setrgbcolor
fill
grestore
gsave
1395 554.4 225 79.2 clipbox
1006.2 187.132075 m
1173.6 187.132075 l
1173.6 183.328302 l
1006.2 183.328302 l
cl
0.922 0.318 0.376 setrgbcolor
fill
grestore
gsave
1395 554.4 225 79.2 clipbox
1006.2 149.09434 m
1173.6 149.09434 l
1173.6 145.290566 l
1006.2 145.290566 l
cl
0.922 0.318 0.376 setrgbcolor
fill
grestore
gsave
1395 554.4 225 79.2 clipbox
1006.2 111.056604 m
1173.6 111.056604 l
1173.6 107.25283 l
1006.2 107.25283 l
cl
0.922 0.318 0.376 setrgbcolor
fill
grestore
gsave
1395 554.4 225 79.2 clipbox
1173.6 605.54717 m
1229.4 605.54717 l
1229.4 601.743396 l
1173.6 601.743396 l
cl
0.922 0.318 0.376 setrgbcolor
fill
grestore
gsave
1395 554.4 225 79.2 clipbox
1173.6 567.509434 m
1229.4 567.509434 l
1229.4 563.70566 l
1173.6 563.70566 l
cl
0.922 0.318 0.376 setrgbcolor
fill
grestore
gsave
1395 554.4 225 79.2 clipbox
1173.6 529.471698 m
1229.4 529.471698 l
1229.4 525.667925 l
1173.6 525.667925 l
cl
0.922 0.318 0.376 setrgbcolor
fill
grestore
gsave
1395 554.4 225 79.2 clipbox
1173.6 494.286792 m
1229.4 494.286792 l
1229.4 484.777358 l
1173.6 484.777358 l
cl
0.980 0.639 0.027 setrgbcolor
fill
grestore
gsave
1395 554.4 225 79.2 clipbox
1173.6 456.249057 m
1229.4 456.249057 l
1229.4 446.739623 l
1173.6 446.739623 l
cl
0.980 0.639 0.027 setrgbcolor
fill
grestore
gsave
1395 554.4 225 79.2 clipbox
1173.6 418.211321 m
1229.4 418.211321 l
1229.4 408.701887 l
1173.6 408.701887 l
cl
0.980 0.639 0.027 setrgbcolor
fill
grestore
gsave
1395 554.4 225 79.2 clipbox
1173.6 380.173585 m
1229.4 380.173585 l
1229.4 370.664151 l
1173.6 370.664151 l
cl
0.980 0.639 0.027 setrgbcolor
fill
grestore
gsave
1395 554.4 225 79.2 clipbox
1173.6 339.283019 m
1229.4 339.283019 l
1229.4 335.479245 l
1173.6 335.479245 l
cl
0.922 0.318 0.376 setrgbcolor
fill
grestore
gsave
1395 554.4 225 79.2 clipbox
1173.6 301.245283 m
1229.4 301.245283 l
1229.4 297.441509 l
1173.6 297.441509 l
cl
0.922 0.318 0.376 setrgbcolor
fill
grestore
gsave
1395 554.4 225 79.2 clipbox
1173.6 263.207547 m
1229.4 263.207547 l
1229.4 259.403774 l
1173.6 259.403774 l
cl
0.922 0.318 0.376 setrgbcolor
fill
grestore
gsave
1395 554.4 225 79.2 clipbox
1173.6 228.022642 m
1229.4 228.022642 l
1229.4 218.513208 l
1173.6 218.513208 l
cl
0.980 0.639 0.027 setrgbcolor
fill
grestore
gsave
1395 554.4 225 79.2 clipbox
1173.6 189.984906 m
1229.4 189.984906 l
1229.4 180.475472 l
1173.6 180.475472 l
cl
0.980 0.639 0.027 setrgbcolor
fill
grestore
gsave
1395 554.4 225 79.2 clipbox
1173.6 151.94717 m
1229.4 151.94717 l
1229.4 142.437736 l
1173.6 142.437736 l
cl
0.980 0.639 0.027 setrgbcolor
fill
grestore
gsave
1395 554.4 225 79.2 clipbox
1173.6 113.909434 m
1229.4 113.909434 l
1229.4 104.4 l
1173.6 104.4 l
cl
0.980 0.639 0.027 setrgbcolor
fill
grestore
gsave
1395 554.4 225 79.2 clipbox
1229.4 605.54717 m
1508.4 605.54717 l
1508.4 601.743396 l
1229.4 601.743396 l
cl
0.922 0.318 0.376 setrgbcolor
fill
grestore
gsave
1395 554.4 225 79.2 clipbox
1229.4 567.509434 m
1508.4 567.509434 l
1508.4 563.70566 l
1229.4 563.70566 l
cl
0.922 0.318 0.376 setrgbcolor
fill
grestore
gsave
1395 554.4 225 79.2 clipbox
1229.4 529.471698 m
1508.4 529.471698 l
1508.4 525.667925 l
1229.4 525.667925 l
cl
0.922 0.318 0.376 setrgbcolor
fill
grestore
gsave
1395 554.4 225 79.2 clipbox
1229.4 494.286792 m
1508.4 494.286792 l
1508.4 484.777358 l
1229.4 484.777358 l
cl
0.133 0.435 0.329 setrgbcolor
fill
grestore
gsave
1395 554.4 225 79.2 clipbox
1229.4 456.249057 m
1508.4 456.249057 l
1508.4 446.739623 l
1229.4 446.739623 l
cl
0.024 0.839 0.627 setrgbcolor
fill
grestore
gsave
1395 554.4 225 79.2 clipbox
1229.4 418.211321 m
1508.4 418.211321 l
1508.4 408.701887 l
1229.4 408.701887 l
cl
0.024 0.839 0.627 setrgbcolor
fill
grestore
gsave
1395 554.4 225 79.2 clipbox
1229.4 380.173585 m
1508.4 380.173585 l
1508.4 370.664151 l
1229.4 370.664151 l
cl
0.133 0.435 0.329 setrgbcolor
fill
grestore
gsave
1395 554.4 225 79.2 clipbox
1229.4 339.283019 m
1508.4 339.283019 l
1508.4 335.479245 l
1229.4 335.479245 l
cl
0.922 0.318 0.376 setrgbcolor
fill
grestore
gsave
1395 554.4 225 79.2 clipbox
1229.4 301.245283 m
1508.4 301.245283 l
1508.4 297.441509 l
1229.4 297.441509 l
cl
0.922 0.318 0.376 setrgbcolor
fill
grestore
gsave
1395 554.4 225 79.2 clipbox
1229.4 263.207547 m
1508.4 263.207547 l
1508.4 259.403774 l
1229.4 259.403774 l
cl
0.922 0.318 0.376 setrgbcolor
fill
grestore
gsave
1395 554.4 225 79.2 clipbox
1229.4 228.022642 m
1508.4 228.022642 l
1508.4 218.513208 l
1229.4 218.513208 l
cl
0.133 0.435 0.329 setrgbcolor
fill
grestore
gsave
1395 554.4 225 79.2 clipbox
1229.4 189.984906 m
1508.4 189.984906 l
1508.4 180.475472 l
1229.4 180.475472 l
cl
0.024 0.839 0.627 setrgbcolor
fill
grestore
gsave
1395 554.4 225 79.2 clipbox
1229.4 151.94717 m
1508.4 151.94717 l
1508.4 142.437736 l
1229.4 142.437736 l
cl
0.024 0.839 0.627 setrgbcolor
fill
grestore
gsave
1395 554.4 225 79.2 clipbox
1229.4 113.909434 m
1508.4 113.909434 l
1508.4 104.4 l
1229.4 104.4 l
cl
0.133 0.435 0.329 setrgbcolor
fill
grestore
0.800 setlinewidth
1 setlinejoin
0 setlinecap
[] 0 setdash
0.000 setgray
gsave
/o {
gsave
newpath
translate
0.8 setlinewidth
1 setlinejoin
0 setlinecap
0 0 m
0 -3.5 l

gsave
0.000 setgray
fill
grestore
stroke
grestore
} bind def
225 79.2 o
grestore
/DejaVuSans findfont
18.000 scalefont
setfont
gsave
219.273438 58.528125 translate
0.000000 rotate
0.000000 0.000000 m /zero glyphshow
grestore
gsave
/o {
gsave
newpath
translate
0.8 setlinewidth
1 setlinejoin
0 setlinecap
0 0 m
0 -3.5 l

gsave
0.000 setgray
fill
grestore
stroke
grestore
} bind def
504 79.2 o
grestore
gsave
498.273438 58.528125 translate
0.000000 rotate
0.000000 0.000000 m /five glyphshow
grestore
gsave
/o {
gsave
newpath
translate
0.8 setlinewidth
1 setlinejoin
0 setlinecap
0 0 m
0 -3.5 l

gsave
0.000 setgray
fill
grestore
stroke
grestore
} bind def
783 79.2 o
grestore
gsave
771.546875 58.528125 translate
0.000000 rotate
0.000000 0.000000 m /one glyphshow
11.452148 0.000000 m /zero glyphshow
grestore
gsave
/o {
gsave
newpath
translate
0.8 setlinewidth
1 setlinejoin
0 setlinecap
0 0 m
0 -3.5 l

gsave
0.000 setgray
fill
grestore
stroke
grestore
} bind def
1062 79.2 o
grestore
gsave
1050.546875 58.528125 translate
0.000000 rotate
0.000000 0.000000 m /one glyphshow
11.452148 0.000000 m /five glyphshow
grestore
gsave
/o {
gsave
newpath
translate
0.8 setlinewidth
1 setlinejoin
0 setlinecap
0 0 m
0 -3.5 l

gsave
0.000 setgray
fill
grestore
stroke
grestore
} bind def
1341 79.2 o
grestore
gsave
1329.546875 58.528125 translate
0.000000 rotate
0.000000 0.000000 m /two glyphshow
11.452148 0.000000 m /zero glyphshow
grestore
gsave
/o {
gsave
newpath
translate
0.8 setlinewidth
1 setlinejoin
0 setlinecap
0 0 m
0 -3.5 l

gsave
0.000 setgray
fill
grestore
stroke
grestore
} bind def
1620 79.2 o
grestore
gsave
1608.546875 58.528125 translate
0.000000 rotate
0.000000 0.000000 m /two glyphshow
11.452148 0.000000 m /five glyphshow
grestore
/DejaVuSans findfont
10.000 scalefont
setfont
gsave
901.484375 43.184375 translate
0.000000 rotate
0.000000 0.000000 m /S glyphshow
6.347656 0.000000 m /e glyphshow
12.500000 0.000000 m /c glyphshow
17.998047 0.000000 m /o glyphshow
24.116211 0.000000 m /n glyphshow
30.454102 0.000000 m /d glyphshow
36.801758 0.000000 m /s glyphshow
grestore
gsave
/o {
gsave
newpath
translate
0.8 setlinewidth
1 setlinejoin
0 setlinecap
0 0 m
-3.5 0 l

gsave
0.000 setgray
fill
grestore
stroke
grestore
} bind def
225 603.645 o
grestore
/DejaVuSans findfont
18.000 scalefont
setfont
gsave
173.937500 596.809346 translate
0.000000 rotate
0.000000 0.000000 m /K glyphshow
11.803711 0.000000 m /zero glyphshow
23.255859 0.000000 m /space glyphshow
28.977539 0.000000 m /uni21B2 glyphshow
grestore
gsave
/o {
gsave
newpath
translate
0.8 setlinewidth
1 setlinejoin
0 setlinecap
0 0 m
-3.5 0 l

gsave
0.000 setgray
fill
grestore
stroke
grestore
} bind def
225 565.608 o
grestore
gsave
173.937500 558.771610 translate
0.000000 rotate
0.000000 0.000000 m /K glyphshow
11.803711 0.000000 m /one glyphshow
23.255859 0.000000 m /space glyphshow
28.977539 0.000000 m /arrowdown glyphshow
grestore
gsave
/o {
gsave
newpath
translate
0.8 setlinewidth
1 setlinejoin
0 setlinecap
0 0 m
-3.5 0 l

gsave
0.000 setgray
fill
grestore
stroke
grestore
} bind def
225 527.57 o
grestore
gsave
173.937500 520.733874 translate
0.000000 rotate
0.000000 0.000000 m /K glyphshow
11.803711 0.000000 m /two glyphshow
23.255859 0.000000 m /space glyphshow
28.977539 0.000000 m /uni21B3 glyphshow
grestore
gsave
/o {
gsave
newpath
translate
0.8 setlinewidth
1 setlinejoin
0 setlinecap
0 0 m
-3.5 0 l

gsave
0.000 setgray
fill
grestore
stroke
grestore
} bind def
225 489.532 o
grestore
gsave
173.968750 482.696138 translate
0.000000 rotate
0.000000 0.000000 m /K glyphshow
11.803711 0.000000 m /three glyphshow
23.255859 0.000000 m /space glyphshow
28.977539 0.000000 m /uni2B11 glyphshow
grestore
gsave
/o {
gsave
newpath
translate
0.8 setlinewidth
1 setlinejoin
0 setlinecap
0 0 m
-3.5 0 l

gsave
0.000 setgray
fill
grestore
stroke
grestore
} bind def
225 451.494 o
grestore
gsave
173.937500 444.658402 translate
0.000000 rotate
0.000000 0.000000 m /K glyphshow
11.803711 0.000000 m /four glyphshow
23.255859 0.000000 m /space glyphshow
28.977539 0.000000 m /arrowleft glyphshow
grestore
gsave
/o {
gsave
newpath
translate
0.8 setlinewidth
1 setlinejoin
0 setlinecap
0 0 m
-3.5 0 l

gsave
0.000 setgray
fill
grestore
stroke
grestore
} bind def
225 413.457 o
grestore
gsave
173.937500 406.620666 translate
0.000000 rotate
0.000000 0.000000 m /K glyphshow
11.803711 0.000000 m /five glyphshow
23.255859 0.000000 m /space glyphshow
28.977539 0.000000 m /arrowleft glyphshow
grestore
gsave
/o {
gsave
newpath
translate
0.8 setlinewidth
1 setlinejoin
0 setlinecap
0 0 m
-3.5 0 l

gsave
0.000 setgray
fill
grestore
stroke
grestore
} bind def
225 375.419 o
grestore
gsave
173.968750 368.582930 translate
0.000000 rotate
0.000000 0.000000 m /K glyphshow
11.803711 0.000000 m /six glyphshow
23.255859 0.000000 m /space glyphshow
28.977539 0.000000 m /uni2B10 glyphshow
grestore
gsave
/o {
gsave
newpath
translate
0.8 setlinewidth
1 setlinejoin
0 setlinecap
0 0 m
-3.5 0 l

gsave
0.000 setgray
fill
grestore
stroke
grestore
} bind def
225 337.381 o
grestore
gsave
173.937500 330.545195 translate
0.000000 rotate
0.000000 0.000000 m /K glyphshow
11.803711 0.000000 m /seven glyphshow
23.255859 0.000000 m /space glyphshow
28.977539 0.000000 m /uni21B1 glyphshow
grestore
gsave
/o {
gsave
newpath
translate
0.8 setlinewidth
1 setlinejoin
0 setlinecap
0 0 m
-3.5 0 l

gsave
0.000 setgray
fill
grestore
stroke
grestore
} bind def
225 299.343 o
grestore
gsave
173.937500 292.507459 translate
0.000000 rotate
0.000000 0.000000 m /K glyphshow
11.803711 0.000000 m /eight glyphshow
23.255859 0.000000 m /space glyphshow
28.977539 0.000000 m /arrowup glyphshow
grestore
gsave
/o {
gsave
newpath
translate
0.8 setlinewidth
1 setlinejoin
0 setlinecap
0 0 m
-3.5 0 l

gsave
0.000 setgray
fill
grestore
stroke
grestore
} bind def
225 261.306 o
grestore
gsave
173.937500 254.469723 translate
0.000000 rotate
0.000000 0.000000 m /K glyphshow
11.803711 0.000000 m /nine glyphshow
23.255859 0.000000 m /space glyphshow
28.977539 0.000000 m /uni21B0 glyphshow
grestore
gsave
/o {
gsave
newpath
translate
0.8 setlinewidth
1 setlinejoin
0 setlinecap
0 0 m
-3.5 0 l

gsave
0.000 setgray
fill
grestore
stroke
grestore
} bind def
225 223.268 o
grestore
gsave
162.515625 216.431987 translate
0.000000 rotate
0.000000 0.000000 m /K glyphshow
11.803711 0.000000 m /one glyphshow
23.255859 0.000000 m /zero glyphshow
34.708008 0.000000 m /space glyphshow
40.429688 0.000000 m /uni2B0E glyphshow
grestore
gsave
/o {
gsave
newpath
translate
0.8 setlinewidth
1 setlinejoin
0 setlinecap
0 0 m
-3.5 0 l

gsave
0.000 setgray
fill
grestore
stroke
grestore
} bind def
225 185.23 o
grestore
gsave
162.484375 178.394251 translate
0.000000 rotate
0.000000 0.000000 m /K glyphshow
11.803711 0.000000 m /one glyphshow
23.255859 0.000000 m /one glyphshow
34.708008 0.000000 m /space glyphshow
40.429688 0.000000 m /arrowright glyphshow
grestore
gsave
/o {
gsave
newpath
translate
0.8 setlinewidth
1 setlinejoin
0 setlinecap
0 0 m
-3.5 0 l

gsave
0.000 setgray
fill
grestore
stroke
grestore
} bind def
225 147.192 o
grestore
gsave
162.484375 140.356515 translate
0.000000 rotate
0.000000 0.000000 m /K glyphshow
11.803711 0.000000 m /one glyphshow
23.255859 0.000000 m /two glyphshow
34.708008 0.000000 m /space glyphshow
40.429688 0.000000 m /arrowright glyphshow
grestore
gsave
/o {
gsave
newpath
translate
0.8 setlinewidth
1 setlinejoin
0 setlinecap
0 0 m
-3.5 0 l

gsave
0.000 setgray
fill
grestore
stroke
grestore
} bind def
225 109.155 o
grestore
gsave
162.515625 102.318779 translate
0.000000 rotate
0.000000 0.000000 m /K glyphshow
11.803711 0.000000 m /one glyphshow
23.255859 0.000000 m /three glyphshow
34.708008 0.000000 m /space glyphshow
40.429688 0.000000 m /uni2B0F glyphshow
grestore
/DejaVuSans findfont
10.000 scalefont
setfont
gsave
156.406250 338.431250 translate
90.000000 rotate
0.000000 0.000000 m /S glyphshow
6.347656 0.000000 m /i glyphshow
9.125977 0.000000 m /g glyphshow
15.473633 0.000000 m /n glyphshow
21.811523 0.000000 m /a glyphshow
27.939453 0.000000 m /l glyphshow
30.717773 0.000000 m /s glyphshow
grestore
0 setlinejoin
2 setlinecap
[] 0 setdash
gsave
225 79.2 m
225 633.6 l
stroke
grestore
gsave
1620 79.2 m
1620 633.6 l
stroke
grestore
gsave
225 79.2 m
1620 79.2 l
stroke
grestore
gsave
225 633.6 m
1620 633.6 l
stroke
grestore

end
showpage
